…
5 No.5        46      15
> tail(a, 5)
# A tibble: 5 x 3
  ID    Calculus English
  <chr>    <dbl>   <dbl>
1 No.71       69      96
2 No.72       51     100
3 No.73       37      50
4 No.74       33      92
5 No.75        4      37
> #ex2(b)
> a[is.na(a)] <- 0 
> p <- which((a$Calculus < 60) & (a$English < 60))
> a[p, ]
# A tibble: 23 x 3
   ID    Calculus English
   <chr>    <dbl>   <dbl>
 1 No.5        46      15
 2 No.7        32      51
 3 No.8        51       0
 4 No.11        3       0
 5 No.15       39       6
 6 No.18       40       0
 7 No.21       45      51
 8 No.26       39      29
 9 No.30       48      52
10 No.33       18       0
# ... with 13 more rows
…
